…
- `department_id`: department identifier

- `aisle`: the name of the aisle

- `department`: the name of the department

``` r
#Summary of unique users
instacart |> 
  group_by(user_id) |> 
  summarize(n_obs = n())
```

    ## # A tibble: 131,209 × 2
    ##    user_id n_obs
    ##      <int> <int>
    ##  1       1    11
    ##  2       2    31
    ##  3       5     9
    ##  4       7     9
    ##  5       8    18
    ##  6       9    22
    ##  7      10     4
    ##  8      13     5
    ##  9      14    11
    ## 10      17     6
    ## # ℹ 131,199 more rows

``` r
#Summary of unique orders
instacart |> 
  group_by(order_id) |> 
  summarize(n_obs = n())
```

    ## # A tibble: 131,209 × 2
    ##    order_id n_obs
    ##       <int> <int>
    ##  1        1     8
    ##  2       36     8
    ##  3       38     9
    ##  4       96     7
    ##  5       98    49
    ##  6      112    11
    ##  7      170    17
    ##  8      218     5
    ##  9      226    13
    ## 10      349    11
    ## # ℹ 131,199 more rows
…
